<?xml version="1.0" encoding="utf-8"?>
<!-- Generator: Adobe Illustrator 16.0.0, SVG Export Plug-In . SVG Version: 6.00 Build 0)  -->
<!DOCTYPE svg PUBLIC "-//W3C//DTD SVG 1.1//EN" "http://www.w3.org/Graphics/SVG/1.1/DTD/svg11.dtd">
<svg version="1.1" id="Layer_1" xmlns="http://www.w3.org/2000/svg" xmlns:xlink="http://www.w3.org/1999/xlink" x="0px" y="0px"
	 width="1024px" height="1024px" viewBox="0 0 1024 1024" enable-background="new 0 0 1024 1024" xml:space="preserve">
<g id="Layer_3" display="none">
	<rect x="-0.5" y="0.5" display="inline" fill="#4D4D4D" stroke="#FFFFFF" stroke-miterlimit="10" width="1024" height="1024"/>
</g>
<g id="RECORDING" display="none">
	
		<circle id="ExtCircle" display="inline" fill="none" stroke="#42C5BE" stroke-width="40" stroke-miterlimit="10" cx="513" cy="513" r="459"/>
	
		<circle id="MidCircle" display="inline" fill="none" stroke="#FFFFFF" stroke-width="20" stroke-miterlimit="10" cx="513" cy="513" r="126"/>
	
		<circle id="InCircle" display="inline" fill="none" stroke="#42C5BE" stroke-width="40" stroke-miterlimit="10" cx="513" cy="513" r="72"/>
</g>
<g id="MIXING" display="none">
	<g display="inline">
		<path fill="none" stroke="#42C5BE" stroke-width="40" stroke-miterlimit="10" d="M522,54.096C771.344,58.893,972,262.509,972,513
			c0,253.499-205.501,459-459,459c-132.175,0-251.293-55.876-335.044-145.288"/>
		<path fill="none" stroke="#F2F2F2" stroke-width="20" stroke-miterlimit="10" d="M496,54.313C250.378,63.256,54,265.193,54,513
			c0,111.974,40.1,214.577,106.717,294.247"/>
		<path fill="none" stroke="#F2F2F2" stroke-width="20" stroke-miterlimit="10" d="M409.844,585.347
			C395.456,564.871,387,539.926,387,513c0-63.822,47.453-116.553,109-124.854"/>
		<path fill="none" stroke="#42C5BE" stroke-width="40" stroke-miterlimit="10" d="M522,387.323
			c65.387,4.616,117,59.116,117,125.677c0,69.588-56.412,126-126,126c-33.3,0-63.57-12.93-86.098-34.028"/>
		<path fill="none" stroke="#42C5BE" stroke-width="40" stroke-miterlimit="10" d="M522,135.109C726.605,139.89,891,307.245,891,513
			c0,208.764-169.236,378-378,378c-108.125,0-205.641-45.406-274.538-118.182"/>
		<path fill="none" stroke="#F2F2F2" stroke-width="20" stroke-miterlimit="10" d="M496,135.383
			C295.126,144.275,135,309.934,135,513c0,91.288,32.375,175.004,86.25,240.33"/>
		<path fill="none" stroke="#42C5BE" stroke-width="40" stroke-miterlimit="10" d="M522,216.147
			C681.864,220.907,810,351.983,810,513c0,164.029-132.971,297-297,297c-84.076,0-159.962-34.964-213.993-91.109"/>
		<path fill="none" stroke="#F2F2F2" stroke-width="20" stroke-miterlimit="10" d="M496,216.495
			C339.884,225.308,216,354.679,216,513c0,70.602,24.658,135.429,65.803,186.395"/>
		<path fill="none" stroke="#F2F2F2" stroke-width="20" stroke-miterlimit="10" d="M346.591,641.688
			c-27.552-35.573-43.964-80.209-43.964-128.688c0-110.461,85.139-201.031,193.373-209.688"/>
		<path fill="none" stroke="#42C5BE" stroke-width="40" stroke-miterlimit="10" d="M522,302.831
			c112.01,4.717,201.373,97,201.373,210.169c0,116.188-94.188,210.373-210.373,210.373c-58.354,0-111.149-23.771-149.258-62.145"/>
	</g>
</g>
<g id="CopyMixing" display="none">
	<path id="InCircle2" display="inline" fill="none" stroke="#43C5BE" stroke-width="40" stroke-miterlimit="10" d="M515.166,302.654
		C630.354,303.818,723.373,397.539,723.373,513c0,116.188-94.188,210.373-210.373,210.373c-59.504,0-113.231-24.713-151.499-64.426"
		/>
	<polygon id="Polygon_2_" display="inline" fill="#CCCCCC" points="-48.215,-459.246 515.021,-134.309 515.236,515.938 54,945 
		-611.022,516.309 -611.236,-133.937 	"/>
	<path id="InCircle2_2_" display="inline" fill="none" stroke="#43C5BE" stroke-width="40" stroke-miterlimit="10" d="
		M515.166,302.654C630.354,303.818,723.373,397.539,723.373,513c0,116.188-94.188,210.373-210.373,210.373
		c-59.504,0-113.231-24.713-151.499-64.426"/>
	<polygon id="LeftPoli_1_" display="inline" fill="#CCCCCC" points="-48.215,-459.246 515.021,-134.309 515.236,515.938 54,945 
		-611.022,516.309 -611.236,-133.937 	"/>
	
		<line display="inline" fill="none" stroke="#42C5BE" stroke-width="40" stroke-miterlimit="10" x1="513" y1="513" x2="513" y2="-36"/>
	
		<line display="inline" fill="none" stroke="#42C5BE" stroke-width="40" stroke-miterlimit="10" x1="513" y1="513" x2="90" y2="891"/>
	<polygon id="RightPoli" display="inline" fill="#CCCCCC" points="1077.785,-459.246 1641.021,-134.309 1593,1179 54,945 
		514.979,516.309 514.764,-133.937 	"/>
	
		<circle id="In2Circle_1_" display="inline" fill="none" stroke="#42C5BE" stroke-width="40" stroke-miterlimit="10" cx="513" cy="513" r="210.373"/>
</g>
<g id="POZA" display="none">
	
		<image display="inline" overflow="visible" enable-background="new    " width="1556" height="466" xlink:href="D2C55094.png"  transform="matrix(0.5 0 0 0.5 36 729)">
	</image>
	<polygon id="Polygon_1_" display="inline" fill="#CCCCCC" points="-48.215,-459.246 515.021,-134.309 515.236,515.938 54,945 
		-611.022,516.309 -611.236,-133.937 	"/>
</g>
<g id="BackgroundTourq" display="none">
	<rect display="inline" fill="#42C5BE" width="1024" height="1014"/>
</g>
<g id="BetisoareSt" display="none">
	<g display="inline">
		<g>
			<path fill="#666666" d="M225,396c0,9,0,18,0,27c0,6.449,10,6.449,10,0c0-9,0-18,0-27C235,389.551,225,389.551,225,396L225,396z"
				/>
		</g>
	</g>
	<g display="inline">
		<g>
			<path fill="#666666" d="M157.743,426.669c6.481,6.244,12.962,12.489,19.443,18.733c4.643,4.473,11.722-2.59,7.071-7.071
				c-6.481-6.244-12.962-12.489-19.443-18.733C160.171,415.125,153.092,422.188,157.743,426.669L157.743,426.669z"/>
		</g>
	</g>
	<g display="inline">
		<g>
			<path fill="#666666" d="M225,549c0,9,0,18,0,27c0,6.448,10,6.448,10,0c0-9,0-18,0-27C235,542.552,225,542.552,225,549L225,549z"
				/>
		</g>
	</g>
	<g display="inline">
		<g>
			<path fill="#666666" d="M269.743,534.668c6.481,6.245,12.962,12.49,19.443,18.734c4.643,4.474,11.722-2.589,7.071-7.07
				c-6.481-6.245-12.962-12.49-19.443-18.734C272.171,523.124,265.092,530.188,269.743,534.668L269.743,534.668z"/>
		</g>
	</g>
	<g display="inline">
		<g>
			<path fill="#666666" d="M135.505,493.874c8.997-0.25,17.993-0.499,26.99-0.748c6.435-0.178,6.452-10.179,0-10
				c-8.997,0.25-17.993,0.499-26.99,0.748C129.07,484.052,129.053,494.053,135.505,493.874L135.505,493.874z"/>
		</g>
	</g>
	<g display="inline">
		<g>
			<path fill="#666666" d="M294.505,493.874c8.997-0.25,17.994-0.499,26.99-0.748c6.435-0.178,6.452-10.179,0-10
				c-8.997,0.25-17.994,0.499-26.99,0.748C288.07,484.052,288.053,494.053,294.505,493.874L294.505,493.874z"/>
		</g>
	</g>
	<g display="inline">
		<g>
			<path fill="#666666" d="M279.119,443.624c6.944-5.726,13.888-11.451,20.833-17.176c4.98-4.106-2.137-11.14-7.071-7.071
				c-6.944,5.726-13.888,11.451-20.833,17.176C267.068,440.658,274.185,447.691,279.119,443.624L279.119,443.624z"/>
		</g>
	</g>
	<g display="inline">
		<g>
			<path fill="#666666" d="M165.119,552.623c6.944-5.725,13.888-11.45,20.833-17.176c4.98-4.105-2.137-11.14-7.071-7.07
				c-6.944,5.725-13.888,11.45-20.833,17.176C153.068,549.658,160.185,556.691,165.119,552.623L165.119,552.623z"/>
		</g>
	</g>
	<g display="inline">
		<g>
			<path fill="#666666" d="M801,396c0,9,0,18,0,27c0,6.449,10,6.449,10,0c0-9,0-18,0-27C811,389.551,801,389.551,801,396L801,396z"
				/>
		</g>
	</g>
	<g display="inline">
		<g>
			<path fill="#666666" d="M733.743,426.669c6.479,6.244,12.962,12.489,19.442,18.733c4.644,4.473,11.723-2.59,7.07-7.071
				c-6.479-6.244-12.962-12.489-19.443-18.733C736.171,415.125,729.092,422.188,733.743,426.669L733.743,426.669z"/>
		</g>
	</g>
	<g display="inline">
		<g>
			<path fill="#666666" d="M801,549c0,9,0,18,0,27c0,6.448,10,6.448,10,0c0-9,0-18,0-27C811,542.552,801,542.552,801,549L801,549z"
				/>
		</g>
	</g>
	<g display="inline">
		<g>
			<path fill="#666666" d="M845.743,534.668c6.479,6.245,12.962,12.49,19.442,18.734c4.644,4.474,11.723-2.589,7.07-7.07
				c-6.479-6.245-12.962-12.49-19.443-18.734C848.171,523.124,841.092,530.188,845.743,534.668L845.743,534.668z"/>
		</g>
	</g>
	<g display="inline">
		<g>
			<path fill="#666666" d="M711.506,493.874c8.996-0.25,17.993-0.499,26.989-0.748c6.435-0.178,6.452-10.179,0-10
				c-8.996,0.25-17.993,0.499-26.989,0.748C705.07,484.052,705.054,494.053,711.506,493.874L711.506,493.874z"/>
		</g>
	</g>
	<g display="inline">
		<g>
			<path fill="#666666" d="M870.505,493.874c8.997-0.25,17.993-0.499,26.99-0.748c6.435-0.178,6.452-10.179,0-10
				c-8.997,0.25-17.993,0.499-26.99,0.748C864.07,484.052,864.053,494.053,870.505,493.874L870.505,493.874z"/>
		</g>
	</g>
	<g display="inline">
		<g>
			<path fill="#666666" d="M855.119,443.624c6.943-5.726,13.889-11.451,20.832-17.176c4.979-4.106-2.137-11.14-7.07-7.071
				c-6.943,5.726-13.889,11.451-20.832,17.176C843.068,440.658,850.186,447.691,855.119,443.624L855.119,443.624z"/>
		</g>
	</g>
</g>
<g id="BetisoareDr" display="none">
	<g display="inline">
		<g>
			<path fill="#666666" d="M741.119,552.623c6.943-5.725,13.889-11.45,20.832-17.176c4.979-4.105-2.137-11.14-7.07-7.07
				c-6.943,5.725-13.889,11.45-20.832,17.176C729.068,549.658,736.186,556.691,741.119,552.623L741.119,552.623z"/>
		</g>
	</g>
</g>
<g id="CercuriCasetofon" display="none">
	
		<circle display="inline" fill="none" stroke="#F2F2F2" stroke-width="20" stroke-miterlimit="10" cx="230.662" cy="486" r="186.563"/>
	
		<circle display="inline" fill="none" stroke="#F2F2F2" stroke-width="20" stroke-miterlimit="10" cx="803.869" cy="486" r="186.563"/>
	
		<circle display="inline" fill="none" stroke="#F2F2F2" stroke-width="20" stroke-miterlimit="10" cx="227.207" cy="486" r="55.368"/>
	
		<circle display="inline" fill="none" stroke="#F2F2F2" stroke-width="20" stroke-miterlimit="10" cx="803.324" cy="486" r="55.368"/>
</g>
<g id="BandaCasetofon" display="none">
	
		<circle display="inline" fill="none" stroke="#666666" stroke-width="9" stroke-miterlimit="10" cx="236.817" cy="486" r="192.612"/>
	<g display="inline">
		<path fill="none" stroke="#666666" stroke-width="10" stroke-miterlimit="10" d="M42.38,536.306
			C61.194,608.394,123.759,671.438,198,680c17.883,2.063,72,1,72,1h4h485"/>
		<path display="none" fill="none" stroke="#666666" stroke-width="10" stroke-miterlimit="10" d="M274.292,679.5
			c89.727-18.697,157.14-98.223,157.14-193.5c0-93.663-65.147-172.106-152.599-192.5"/>
		<path fill="none" stroke="#666666" stroke-width="10" stroke-miterlimit="10" d="M42.5,435.945
			c-4.172,15.986-6.4,32.76-6.4,50.055s2.228,34.067,6.4,50.056"/>
		<path display="none" fill="none" stroke="#666666" stroke-width="10" stroke-miterlimit="10" d="M754.697,293.5
			C667.246,313.894,602.1,392.337,602.1,486c0,95.277,67.412,174.803,157.141,193.5"/>
		<g>
			<path fill="none" stroke="#666666" stroke-width="10" stroke-miterlimit="10" d="M42.5,435.945
				C60.925,365.349,125.263,303.369,198,295c20.117-2.314,81-2,81-2l468,0.25c0,0,73.695-3.208,97.833,0.75
				C918,306,971.547,364.703,990.5,434.357"/>
		</g>
		<path fill="none" stroke="#666666" stroke-width="10" stroke-miterlimit="10" d="M990.5,538.018
			c4.511-16.575,6.932-34.013,6.932-52.018s-2.421-35.442-6.932-52.018"/>
		<path fill="none" stroke="#666666" stroke-width="10" stroke-miterlimit="10" d="M990.5,538.268
			C971.143,609.408,914.365,671.953,840.291,680c-0.072,0.008-0.291,0-0.291,0l-81,1.375"/>
	</g>
</g>
<g id="Layer_11">
	<g id="StMarg">
		<line fill="none" stroke="#42C5BE" stroke-width="30" stroke-miterlimit="10" x1="125" y1="225" x2="125" y2="738"/>
		<line fill="none" stroke="#42C5BE" stroke-width="10" stroke-miterlimit="10" x1="89" y1="270" x2="161" y2="270"/>
		<line fill="none" stroke="#42C5BE" stroke-width="10" stroke-miterlimit="10" x1="89" y1="333" x2="161" y2="333"/>
		<line fill="none" stroke="#42C5BE" stroke-width="10" stroke-miterlimit="10" x1="89" y1="684" x2="161" y2="684"/>
		<line fill="none" stroke="#42C5BE" stroke-width="10" stroke-miterlimit="10" x1="89" y1="621" x2="161" y2="621"/>
		<g>
			<rect x="85" y="396" fill="#FFFFFF" stroke="#4D4D4D" stroke-width="10" stroke-miterlimit="10" width="80" height="153"/>
			<line fill="none" stroke="#42C5BE" stroke-width="10" stroke-miterlimit="10" x1="103" y1="473" x2="148" y2="473"/>
		</g>
	</g>
	<g id="StCentr">
		<line fill="none" stroke="#42C5BE" stroke-width="30" stroke-miterlimit="10" x1="382" y1="225" x2="382" y2="738"/>
		<line fill="none" stroke="#42C5BE" stroke-width="10" stroke-miterlimit="10" x1="346" y1="270" x2="418" y2="270"/>
		<line fill="none" stroke="#42C5BE" stroke-width="10" stroke-miterlimit="10" x1="346" y1="333" x2="418" y2="333"/>
		<line fill="none" stroke="#42C5BE" stroke-width="10" stroke-miterlimit="10" x1="346" y1="684" x2="418" y2="684"/>
		<line fill="none" stroke="#42C5BE" stroke-width="10" stroke-miterlimit="10" x1="346" y1="405" x2="418" y2="405"/>
		<g>
			<rect x="342" y="468" fill="#FFFFFF" stroke="#4D4D4D" stroke-width="10" stroke-miterlimit="10" width="80" height="153"/>
			<line fill="none" stroke="#42C5BE" stroke-width="10" stroke-miterlimit="10" x1="360" y1="545" x2="405" y2="545"/>
		</g>
	</g>
	<g id="DrCentr">
		<line fill="none" stroke="#42C5BE" stroke-width="30" stroke-miterlimit="10" x1="662" y1="225" x2="662" y2="738"/>
		<line fill="none" stroke="#42C5BE" stroke-width="10" stroke-miterlimit="10" x1="626" y1="495" x2="698" y2="495"/>
		<line fill="none" stroke="#42C5BE" stroke-width="10" stroke-miterlimit="10" x1="626" y1="558" x2="698" y2="558"/>
		<line fill="none" stroke="#42C5BE" stroke-width="10" stroke-miterlimit="10" x1="626" y1="684" x2="698" y2="684"/>
		<line fill="none" stroke="#42C5BE" stroke-width="10" stroke-miterlimit="10" x1="626" y1="621" x2="698" y2="621"/>
		<g>
			<rect x="622" y="270" fill="#FFFFFF" stroke="#4D4D4D" stroke-width="10" stroke-miterlimit="10" width="80" height="153"/>
			<line fill="none" stroke="#42C5BE" stroke-width="10" stroke-miterlimit="10" x1="640" y1="347" x2="685" y2="347"/>
		</g>
	</g>
	<g id="DRMarg">
		<line fill="none" stroke="#42C5BE" stroke-width="30" stroke-miterlimit="10" x1="914" y1="225" x2="914" y2="738"/>
		<line fill="none" stroke="#42C5BE" stroke-width="10" stroke-miterlimit="10" x1="878" y1="270" x2="950" y2="270"/>
		<line fill="none" stroke="#42C5BE" stroke-width="10" stroke-miterlimit="10" x1="878" y1="333" x2="950" y2="333"/>
		<line fill="none" stroke="#42C5BE" stroke-width="10" stroke-miterlimit="10" x1="878" y1="684" x2="950" y2="684"/>
		<line fill="none" stroke="#42C5BE" stroke-width="10" stroke-miterlimit="10" x1="878" y1="405" x2="950" y2="405"/>
		<g>
			<rect x="874" y="477" fill="#FFFFFF" stroke="#4D4D4D" stroke-width="10" stroke-miterlimit="10" width="80" height="153"/>
			<line fill="none" stroke="#42C5BE" stroke-width="10" stroke-miterlimit="10" x1="892" y1="554" x2="937" y2="554"/>
		</g>
	</g>
</g>
<g id="Mic" display="none">
	
		<ellipse display="inline" fill="none" stroke="#FFFFFF" stroke-width="10" stroke-miterlimit="10" cx="522" cy="504" rx="171" ry="270"/>
	<g id="MicCentral" display="inline">
		<g id="HorixLines">
			<line fill="none" stroke="#42C5BE" stroke-width="23" stroke-miterlimit="10" x1="398" y1="414.5" x2="639" y2="414.5"/>
			<line fill="none" stroke="#42C5BE" stroke-width="23" stroke-miterlimit="10" x1="398" y1="378.5" x2="639" y2="378.5"/>
			<line fill="none" stroke="#42C5BE" stroke-width="23" stroke-miterlimit="10" x1="398" y1="450.5" x2="639" y2="450.5"/>
			<line fill="none" stroke="#42C5BE" stroke-width="23" stroke-miterlimit="10" x1="398" y1="485.5" x2="639" y2="485.5"/>
		</g>
		<g id="VertLines">
			<path fill="#42C5BE" d="M513,225v134h-45V240.771v0.146c15-8.733,29.005-14.326,44.784-15.389"/>
			<path fill="#42C5BE" d="M456,249.025V359h-43v-49.445v-0.048c10-25.073,27-45.879,43-60.514V249.025z"/>
			<path fill="#42C5BE" d="M524,225.639V359h45V240.771v-0.329C554,231.855,539,226.568,524,225.639z"/>
			<path fill="#42C5BE" d="M581,248.337V359h43v-51h0.472C613.121,284,597,262.689,581,248.345V248.337z"/>
			<path fill="#42C5BE" d="M513,632.114V503h-45v113.982v-0.146C483,625.567,497,631.053,513,632.114z"/>
			<path fill="#42C5BE" d="M413,503v45.247c10,25.072,27,43.849,43,58.483V503H413z"/>
			<path fill="#42C5BE" d="M524,633V503h45v114.311c-15,8.589-29.018,14.152-44.785,15.078"/>
			<path fill="#42C5BE" d="M579,609.415V504h44v45.575C613,574.255,597,595.07,579,609.415z"/>
		</g>
		<g id="MicSupp">
			<line fill="none" stroke="#666666" stroke-width="15" stroke-miterlimit="10" x1="518.5" y1="663" x2="518.5" y2="729"/>
			<path id="MixSupp" fill="none" stroke="#666666" stroke-width="15" stroke-miterlimit="10" d="M667.219,455.348
				c0,136.518-53.421,207.745-148.36,207.745c-89.062,0-148.417-71.229-149.076-207.745"/>
			<line fill="none" stroke="#666666" stroke-width="30" stroke-miterlimit="10" x1="436" y1="729" x2="602" y2="729"/>
		</g>
	</g>
	<g id="MicCentral_1_" display="inline">
		<g id="HorixLines_1_">
			<line fill="none" stroke="#42C5BE" stroke-width="23" stroke-miterlimit="10" x1="755" y1="427.5" x2="946" y2="427.5"/>
			<line fill="none" stroke="#42C5BE" stroke-width="23" stroke-miterlimit="10" x1="755" y1="398.5" x2="946" y2="398.5"/>
			<line fill="none" stroke="#42C5BE" stroke-width="23" stroke-miterlimit="10" x1="755" y1="455.5" x2="946" y2="455.5"/>
			<line fill="none" stroke="#42C5BE" stroke-width="23" stroke-miterlimit="10" x1="755" y1="483.5" x2="946" y2="483.5"/>
		</g>
		<g id="VertLines_1_">
			<path fill="#42C5BE" d="M846,277v107h-36v-94.482v0.116c13-6.931,23.162-11.37,35.688-12.214"/>
			<path fill="#42C5BE" d="M801,296.068V384h-34v-39.892v-0.038c8-19.899,21-36.412,34-48.027V296.068z"/>
			<path fill="#42C5BE" d="M855,277.508V384h36v-94.482v-0.261C878,282.442,867,278.246,855,277.508z"/>
			<path fill="#42C5BE" d="M900,295.523V384h34v-41h0.604C925.596,324,913,306.913,900,295.529V295.523z"/>
			<path fill="#42C5BE" d="M846,600.106V498h-36v90.097v-0.114C823,594.909,833,599.264,846,600.106z"/>
			<path fill="#42C5BE" d="M767,498v35.545c8,19.899,21,34.8,34,46.415V498H767z"/>
			<path fill="#42C5BE" d="M855,601V498h36v90.356c-13,6.814-23.172,11.326-35.688,12.063"/>
			<path fill="#42C5BE" d="M898,582.091V498h36v36.599C925,554.188,913,570.706,898,582.091z"/>
		</g>
		<g id="MicSupp_1_">
			<line fill="none" stroke="#666666" stroke-width="15" stroke-miterlimit="10" x1="850.5" y1="625" x2="850.5" y2="677"/>
			<path id="MixSupp_1_" fill="none" stroke="#666666" stroke-width="15" stroke-miterlimit="10" d="M968.53,459.815
				c0,108.347-42.397,164.877-117.747,164.877c-70.683,0-117.79-56.53-118.313-164.877"/>
			<line fill="none" stroke="#666666" stroke-width="30" stroke-miterlimit="10" x1="785" y1="677" x2="917" y2="677"/>
		</g>
	</g>
	<g id="MicCentral_2_" display="inline">
		<g id="HorixLines_2_">
			<line fill="none" stroke="#42C5BE" stroke-width="23" stroke-miterlimit="10" x1="83" y1="427.5" x2="274" y2="427.5"/>
			<line fill="none" stroke="#42C5BE" stroke-width="23" stroke-miterlimit="10" x1="83" y1="398.5" x2="274" y2="398.5"/>
			<line fill="none" stroke="#42C5BE" stroke-width="23" stroke-miterlimit="10" x1="83" y1="455.5" x2="274" y2="455.5"/>
			<line fill="none" stroke="#42C5BE" stroke-width="23" stroke-miterlimit="10" x1="83" y1="483.5" x2="274" y2="483.5"/>
		</g>
		<g id="VertLines_2_">
			<path fill="#42C5BE" d="M174,277v107h-36v-94.482v0.116c13-6.931,23.162-11.37,35.688-12.214"/>
			<path fill="#42C5BE" d="M129,296.068V384H95v-39.892v-0.038c8-19.899,21-36.412,34-48.027V296.068z"/>
			<path fill="#42C5BE" d="M183,277.508V384h36v-94.482v-0.261C206,282.442,195,278.246,183,277.508z"/>
			<path fill="#42C5BE" d="M228,295.523V384h34v-41h0.604C253.596,324,241,306.913,228,295.529V295.523z"/>
			<path fill="#42C5BE" d="M174,600.106V498h-36v90.097v-0.114C151,594.909,161,599.264,174,600.106z"/>
			<path fill="#42C5BE" d="M95,498v35.545c8,19.899,21,34.8,34,46.415V498H95z"/>
			<path fill="#42C5BE" d="M183,601V498h36v90.356c-13,6.814-23.172,11.326-35.688,12.063"/>
			<path fill="#42C5BE" d="M226,582.091V498h36v36.599C253,554.188,241,570.706,226,582.091z"/>
		</g>
		<g id="MicSupp_2_">
			<line fill="none" stroke="#666666" stroke-width="15" stroke-miterlimit="10" x1="178.5" y1="625" x2="178.5" y2="677"/>
			<path id="MixSupp_2_" fill="none" stroke="#666666" stroke-width="15" stroke-miterlimit="10" d="M296.53,459.815
				c0,108.347-42.397,164.877-117.747,164.877c-70.682,0-117.79-56.53-118.313-164.877"/>
			<line fill="none" stroke="#666666" stroke-width="30" stroke-miterlimit="10" x1="113" y1="677" x2="245" y2="677"/>
		</g>
	</g>
</g>
<g id="OutboardGear" display="none">
	<path id="MiniCerculet" display="inline" fill="none" stroke="#4D4D4D" stroke-width="10" stroke-miterlimit="10" d="M468.163,680
		c2.049-27.953,25.361-50,53.837-50c28.477,0,51.788,22.047,53.837,50"/>
	<g id="SemilunaInf" display="inline">
		<polyline display="none" fill="none" stroke="#4D4D4D" stroke-width="10" stroke-miterlimit="10" points="870.081,533.018 
			751.649,681 276.351,681 157.458,532.803 		"/>
		<path fill="none" stroke="#4D4D4D" stroke-width="10" stroke-miterlimit="10" d="M870.081,532.299
			C776.716,497.593,651.126,476.335,513,476.335c-137.366,0-262.339,21.022-355.542,55.39"/>
	</g>
	<path id="SemilunaSup" display="inline" fill="none" stroke="#42C5BE" stroke-width="20" stroke-miterlimit="10" d="
		M938.632,447.06C844.02,394.37,688.641,360,513,360c-174.789,0-329.506,34.039-424.245,86.297"/>
	<polyline id="SuportHexa" display="inline" fill="none" stroke="#42C5BE" stroke-width="20" stroke-miterlimit="10" points="
		989.299,384.275 751.649,680 276.351,680 38.701,384.385 	"/>
	<polyline display="inline" fill="none" stroke="#42C5BE" stroke-width="20" stroke-miterlimit="10" points="989.299,384.275 
		751.649,680 276.351,680 38.701,384.385 	"/>
	<g id="Linitute" display="inline">
		
			<line fill="none" stroke="#42C5BE" stroke-width="10" stroke-miterlimit="10" x1="846.096" y1="404.078" x2="880.903" y2="334.922"/>
		
			<line fill="none" stroke="#42C5BE" stroke-width="10" stroke-miterlimit="10" x1="738.594" y1="377.324" x2="772.405" y2="307.676"/>
		
			<line fill="none" stroke="#42C5BE" stroke-width="10" stroke-miterlimit="10" x1="635.824" y1="360.709" x2="657.175" y2="286.291"/>
		
			<line fill="none" stroke="#42C5BE" stroke-width="10" stroke-miterlimit="10" x1="531.106" y1="350.208" x2="531.893" y2="272.792"/>
		
			<line fill="none" stroke="#42C5BE" stroke-width="10" stroke-miterlimit="10" x1="429.729" y1="355.326" x2="413.269" y2="279.674"/>
		
			<line fill="none" stroke="#42C5BE" stroke-width="10" stroke-miterlimit="10" x1="314.125" y1="370.424" x2="290.875" y2="296.576"/>
		
			<line fill="none" stroke="#42C5BE" stroke-width="10" stroke-miterlimit="10" x1="206.781" y1="396.622" x2="170.218" y2="328.378"/>
	</g>
	
		<line id="IndicatorVit" display="inline" fill="none" stroke="#42C5BE" stroke-width="10" stroke-miterlimit="10" x1="518" y1="675" x2="698" y2="450"/>
</g>
<g id="Monitors" display="none">
	<g id="DrMonit" display="inline">
		<rect x="591" y="256" fill="none" stroke="#42C5BE" stroke-width="10" stroke-miterlimit="10" width="327" height="428"/>
		<circle fill="#42C5BE" stroke="#4D4D4D" stroke-width="10" stroke-miterlimit="10" cx="756.871" cy="351.438" r="47.91"/>
		<circle fill="none" stroke="#FFFFFF" stroke-width="20" stroke-miterlimit="10" cx="756.871" cy="351.438" r="1.186"/>
		<circle fill="none" stroke="#4D4D4D" stroke-width="30" stroke-miterlimit="10" cx="752.129" cy="550.622" r="99.593"/>
		<circle fill="none" stroke="#42C5BE" stroke-width="14" stroke-miterlimit="10" cx="752.129" cy="550.622" r="43.652"/>
		<line fill="none" stroke="#4D4D4D" stroke-width="60" stroke-miterlimit="10" x1="818.523" y1="488.97" x2="842.236" y2="470"/>
		
			<line fill="none" stroke="#4D4D4D" stroke-width="60" stroke-miterlimit="10" x1="652.536" y1="617.018" x2="676.248" y2="598.048"/>
		
			<line fill="none" stroke="#4D4D4D" stroke-width="60" stroke-miterlimit="10" x1="662.145" y1="469.848" x2="685.611" y2="489.121"/>
		
			<line fill="none" stroke="#4D4D4D" stroke-width="60" stroke-miterlimit="10" x1="828.132" y1="597.896" x2="851.599" y2="617.169"/>
	</g>
	<g id="DrMonit_1_" display="inline">
		<rect x="126" y="256" fill="none" stroke="#42C5BE" stroke-width="10" stroke-miterlimit="10" width="327" height="428"/>
		<circle fill="#42C5BE" stroke="#4D4D4D" stroke-width="10" stroke-miterlimit="10" cx="291.871" cy="351.438" r="47.91"/>
		<circle fill="none" stroke="#FFFFFF" stroke-width="20" stroke-miterlimit="10" cx="291.871" cy="351.438" r="1.186"/>
		<circle fill="none" stroke="#4D4D4D" stroke-width="30" stroke-miterlimit="10" cx="287.129" cy="550.622" r="99.593"/>
		<circle fill="none" stroke="#42C5BE" stroke-width="14" stroke-miterlimit="10" cx="287.129" cy="550.622" r="43.652"/>
		<line fill="none" stroke="#4D4D4D" stroke-width="60" stroke-miterlimit="10" x1="353.523" y1="488.97" x2="377.236" y2="470"/>
		
			<line fill="none" stroke="#4D4D4D" stroke-width="60" stroke-miterlimit="10" x1="187.536" y1="617.018" x2="211.248" y2="598.048"/>
		
			<line fill="none" stroke="#4D4D4D" stroke-width="60" stroke-miterlimit="10" x1="197.145" y1="469.848" x2="220.611" y2="489.121"/>
		
			<line fill="none" stroke="#4D4D4D" stroke-width="60" stroke-miterlimit="10" x1="363.132" y1="597.896" x2="386.599" y2="617.169"/>
	</g>
</g>
<g id="Guitar" display="none">
	
		<circle id="InCircle_1_" display="inline" fill="none" stroke="#42C5BE" stroke-width="16" stroke-miterlimit="10" cx="153" cy="513" r="81"/>
	<g id="Chords" display="inline">
		<line fill="none" stroke="#4D4D4D" stroke-width="8" stroke-miterlimit="10" x1="63" y1="499" x2="945" y2="499"/>
		<line fill="none" stroke="#4D4D4D" stroke-width="8" stroke-miterlimit="10" x1="63" y1="470" x2="945" y2="470"/>
		<line fill="none" stroke="#4D4D4D" stroke-width="8" stroke-miterlimit="10" x1="63" y1="529" x2="945" y2="529"/>
		<line fill="none" stroke="#4D4D4D" stroke-width="8" stroke-miterlimit="10" x1="63" y1="559" x2="945" y2="559"/>
	</g>
	<path id="OutCircle" display="inline" fill="none" stroke="#42C5BE" stroke-width="16" stroke-miterlimit="10" d="M63,679.117
		c26.759,14.52,57.417,22.824,90,22.824c104.382,0,189-84.59,189-188.972s-84.618-188.984-189-188.984
		c-32.583,0-63.241,8.261-90,22.778"/>
	<g id="Thingies" display="inline">
		<rect x="769" y="423" fill="#42C5BE" width="41" height="22"/>
		<rect x="837" y="424" fill="#42C5BE" width="41" height="22"/>
		<rect x="904" y="423" fill="#42C5BE" width="41" height="22"/>
		<rect x="769" y="585" fill="#42C5BE" width="41" height="22"/>
		<rect x="837" y="586" fill="#42C5BE" width="41" height="22"/>
		<rect x="904" y="585" fill="#42C5BE" width="41" height="22"/>
	</g>
	<g display="inline">
		<line fill="none" stroke="#42C5BE" stroke-width="5" stroke-miterlimit="10" x1="789" y1="441" x2="789" y2="459"/>
		<line fill="none" stroke="#42C5BE" stroke-width="5" stroke-miterlimit="10" x1="858" y1="441" x2="858" y2="459"/>
		<line fill="none" stroke="#42C5BE" stroke-width="5" stroke-miterlimit="10" x1="925" y1="441" x2="925" y2="459"/>
		<line fill="none" stroke="#42C5BE" stroke-width="5" stroke-miterlimit="10" x1="925" y1="571" x2="925" y2="589"/>
		<line fill="none" stroke="#42C5BE" stroke-width="5" stroke-miterlimit="10" x1="858" y1="571" x2="858" y2="589"/>
		<line fill="none" stroke="#42C5BE" stroke-width="5" stroke-miterlimit="10" x1="789" y1="571" x2="789" y2="589"/>
	</g>
</g>
</svg>
